<?xml version="1.0" encoding="UTF-8" standalone="no"?>
<svg
   viewBox="0 0 512 512"
   style="height:512px;width:512px"
   version="1.1"
   id="svg3"
   sodipodi:docname="turret.svg"
   xml:space="preserve"
   inkscape:version="1.3.2 (091e20ef0f, 2023-11-25, custom)"
   xmlns:inkscape="http://www.inkscape.org/namespaces/inkscape"
   xmlns:sodipodi="http://sodipodi.sourceforge.net/DTD/sodipodi-0.dtd"
   xmlns="http://www.w3.org/2000/svg"
   xmlns:svg="http://www.w3.org/2000/svg"><sodipodi:namedview
     id="namedview3"
     pagecolor="#ffffff"
     bordercolor="#666666"
     borderopacity="1.0"
     inkscape:showpageshadow="2"
     inkscape:pageopacity="0.0"
     inkscape:pagecheckerboard="0"
     inkscape:deskcolor="#d1d1d1"
     showgrid="false"
     inkscape:zoom="0.80078125"
     inkscape:cx="201.67805"
     inkscape:cy="226.65366"
     inkscape:window-width="1716"
     inkscape:window-height="1386"
     inkscape:window-x="1440"
     inkscape:window-y="702"
     inkscape:window-maximized="1"
     inkscape:current-layer="svg3" /><defs
     id="defs2"><filter
       style="color-interpolation-filters:sRGB"
       id="a"
       x="-0.076146651"
       y="-0.075567851"
       width="1.1522933"
       height="1.1511357"><feFlood
         result="flood"
         flood-opacity="1"
         flood-color="#3A3F5E"
         id="feFlood1" /><feGaussianBlur
         result="blur"
         in="SourceGraphic"
         stdDeviation="15"
         id="feGaussianBlur1" /><feOffset
         result="offset"
         in="blur"
         id="feOffset1" /><feComposite
         result="comp1"
         operator="out"
         in="flood"
         in2="offset"
         id="feComposite1" /><feComposite
         result="comp2"
         operator="atop"
         in="comp1"
         in2="SourceGraphic"
         id="feComposite2" /></filter><filter
       style="color-interpolation-filters:sRGB;"
       inkscape:label="Drop Shadow"
       id="filter6"
       x="-0.10546854"
       y="-0.034457079"
       width="1.2109371"
       height="1.0689142"><feFlood
         result="flood"
         in="SourceGraphic"
         flood-opacity="1.000000"
         flood-color="rgb(58,63,94)"
         id="feFlood5" /><feGaussianBlur
         result="blur"
         in="SourceGraphic"
         stdDeviation="15.000000"
         id="feGaussianBlur5" /><feOffset
         result="offset"
         in="blur"
         dx="0.000000"
         dy="0.000000"
         id="feOffset5" /><feComposite
         result="comp1"
         operator="out"
         in="flood"
         in2="offset"
         id="feComposite5" /><feComposite
         result="comp2"
         operator="atop"
         in="comp1"
         in2="SourceGraphic"
         id="feComposite6" /></filter><filter
       style="color-interpolation-filters:sRGB;"
       inkscape:label="Drop Shadow"
       id="filter8"
       x="-0.1282937"
       y="-0.1775368"
       width="1.2565874"
       height="1.3550736"><feFlood
         result="flood"
         in="SourceGraphic"
         flood-opacity="1.000000"
         flood-color="rgb(58,63,94)"
         id="feFlood6" /><feGaussianBlur
         result="blur"
         in="SourceGraphic"
         stdDeviation="15.000000"
         id="feGaussianBlur6" /><feOffset
         result="offset"
         in="blur"
         dx="0.000000"
         dy="0.000000"
         id="feOffset6" /><feComposite
         result="comp1"
         operator="out"
         in="flood"
         in2="offset"
         id="feComposite7" /><feComposite
         result="comp2"
         operator="atop"
         in="comp1"
         in2="SourceGraphic"
         id="feComposite8" /></filter><filter
       style="color-interpolation-filters:sRGB;"
       inkscape:label="Drop Shadow"
       id="filter4"
       x="-0.074147754"
       y="-0.091258042"
       width="1.1482955"
       height="1.1825161"><feFlood
         result="flood"
         in="SourceGraphic"
         flood-opacity="1.000000"
         flood-color="rgb(58,63,94)"
         id="feFlood2" /><feGaussianBlur
         result="blur"
         in="SourceGraphic"
         stdDeviation="15.000000"
         id="feGaussianBlur2" /><feOffset
         result="offset"
         in="blur"
         dx="0.000000"
         dy="0.000000"
         id="feOffset2" /><feComposite
         result="comp1"
         operator="out"
         in="flood"
         in2="offset"
         id="feComposite3" /><feComposite
         result="comp2"
         operator="atop"
         in="comp1"
         in2="SourceGraphic"
         id="feComposite4" /></filter></defs><path
     d="M0 0h512v512H0z"
     fill="#1b1f21"
     id="path2" /><path
     fill="#000000"
     d="m 129.28005,58.760265 c -25.00414,0.111265 -25.00414,1.89655 -25.00414,30.344817 H 73.931098 L 58.758691,119.4499 v 60.68964 l 15.172407,30.34481 h 30.344812 c 0,30.34481 0,30.34481 30.34482,30.34481 H 256 c 30.34481,0 30.34481,0 30.34481,-30.34481 h 15.17241 l 15.17241,-30.34481 h 182.0689 V 119.4499 H 316.68963 L 301.51722,89.105082 h -15.17241 c 0,-30.344817 0,-30.344817 -30.34482,-30.344817 H 134.62074 c -1.89657,0 -3.67477,-0.0071 -5.34069,0 z m 35.6855,212.413715 a 15.172409,15.172409 0 0 0 -15.17241,15.17241 v 45.51723 a 15.172409,15.172409 0 0 0 15.17241,15.17241 h 60.68963 a 15.172409,15.172409 0 0 0 15.17241,-15.17241 v -45.51723 a 15.172409,15.172409 0 0 0 -15.1724,-15.17241 z m -15.17241,106.20686 c -30.34482,0 -45.51723,30.34482 -45.51723,30.34482 -15.172403,0 -30.344812,0 -30.344812,15.17241 l -60.689633,15.17241 v 15.17241 H 377.37927 v -15.17241 l -60.68964,-15.17241 c 0,-15.17241 -15.17241,-15.17241 -30.34482,-15.17241 0,0 -15.17241,-30.34482 -45.51722,-30.34482 z"
     id="path1"
     style="fill:#e64539;fill-opacity:1;stroke-width:1.01149;filter:url(#filter4)"
     transform="matrix(0.91835753,0,0,0.91835753,20.900472,29.952757)" /></svg>
